%!PS-Adobe-2.0 EPSF-2.0
%%Title: starpu_vector_scal.eps
%%Creator: gnuplot 5.2 patchlevel 6
%%CreationDate: Wed May  1 14:52:35 2019
%%DocumentFonts: (atend)
%%BoundingBox: 50 50 410 302
%%EndComments
%%BeginProlog
/gnudict 256 dict def
gnudict begin
%
% The following true/false flags may be edited by hand if desired.
% The unit line width and grayscale image gamma correction may also be changed.
%
/Color true def
/Blacktext false def
/Solid false def
/Dashlength 1 def
/Landscape false def
/Level1 false def
/Level3 false def
/Rounded false def
/ClipToBoundingBox false def
/SuppressPDFMark false def
/TransparentPatterns false def
/gnulinewidth 5.000 def
/userlinewidth gnulinewidth def
/Gamma 1.0 def
/BackgroundColor {-1.000 -1.000 -1.000} def
%
/vshift -46 def
/dl1 {
  10.0 Dashlength userlinewidth gnulinewidth div mul mul mul
  Rounded { currentlinewidth 0.75 mul sub dup 0 le { pop 0.01 } if } if
} def
/dl2 {
  10.0 Dashlength userlinewidth gnulinewidth div mul mul mul
  Rounded { currentlinewidth 0.75 mul add } if
} def
/hpt_ 31.5 def
/vpt_ 31.5 def
/hpt hpt_ def
/vpt vpt_ def
/doclip {
  ClipToBoundingBox {
    newpath 50 50 moveto 410 50 lineto 410 302 lineto 50 302 lineto closepath
    clip
  } if
} def
%
% Gnuplot Prolog Version 5.2 (Dec 2017)
%
%/SuppressPDFMark true def
%
/M {moveto} bind def
/L {lineto} bind def
/R {rmoveto} bind def
/V {rlineto} bind def
/N {newpath moveto} bind def
/Z {closepath} bind def
/C {setrgbcolor} bind def
/f {rlineto fill} bind def
/g {setgray} bind def
/Gshow {show} def   % May be redefined later in the file to support UTF-8
/vpt2 vpt 2 mul def
/hpt2 hpt 2 mul def
/Lshow {currentpoint stroke M 0 vshift R 
	Blacktext {gsave 0 setgray textshow grestore} {textshow} ifelse} def
/Rshow {currentpoint stroke M dup stringwidth pop neg vshift R
	Blacktext {gsave 0 setgray textshow grestore} {textshow} ifelse} def
/Cshow {currentpoint stroke M dup stringwidth pop -2 div vshift R 
	Blacktext {gsave 0 setgray textshow grestore} {textshow} ifelse} def
/UP {dup vpt_ mul /vpt exch def hpt_ mul /hpt exch def
  /hpt2 hpt 2 mul def /vpt2 vpt 2 mul def} def
/DL {Color {setrgbcolor Solid {pop []} if 0 setdash}
 {pop pop pop 0 setgray Solid {pop []} if 0 setdash} ifelse} def
/BL {stroke userlinewidth 2 mul setlinewidth
	Rounded {1 setlinejoin 1 setlinecap} if} def
/AL {stroke userlinewidth 2 div setlinewidth
	Rounded {1 setlinejoin 1 setlinecap} if} def
/UL {dup gnulinewidth mul /userlinewidth exch def
	dup 1 lt {pop 1} if 10 mul /udl exch def} def
/PL {stroke userlinewidth setlinewidth
	Rounded {1 setlinejoin 1 setlinecap} if} def
3.8 setmiterlimit
% Classic Line colors (version 5.0)
/LCw {1 1 1} def
/LCb {0 0 0} def
/LCa {0 0 0} def
/LC0 {1 0 0} def
/LC1 {0 1 0} def
/LC2 {0 0 1} def
/LC3 {1 0 1} def
/LC4 {0 1 1} def
/LC5 {1 1 0} def
/LC6 {0 0 0} def
/LC7 {1 0.3 0} def
/LC8 {0.5 0.5 0.5} def
% Default dash patterns (version 5.0)
/LTB {BL [] LCb DL} def
/LTw {PL [] 1 setgray} def
/LTb {PL [] LCb DL} def
/LTa {AL [1 udl mul 2 udl mul] 0 setdash LCa setrgbcolor} def
/LT0 {PL [] LC0 DL} def
/LT1 {PL [2 dl1 3 dl2] LC1 DL} def
/LT2 {PL [1 dl1 1.5 dl2] LC2 DL} def
/LT3 {PL [6 dl1 2 dl2 1 dl1 2 dl2] LC3 DL} def
/LT4 {PL [1 dl1 2 dl2 6 dl1 2 dl2 1 dl1 2 dl2] LC4 DL} def
/LT5 {PL [4 dl1 2 dl2] LC5 DL} def
/LT6 {PL [1.5 dl1 1.5 dl2 1.5 dl1 1.5 dl2 1.5 dl1 6 dl2] LC6 DL} def
/LT7 {PL [3 dl1 3 dl2 1 dl1 3 dl2] LC7 DL} def
/LT8 {PL [2 dl1 2 dl2 2 dl1 6 dl2] LC8 DL} def
/SL {[] 0 setdash} def
/Pnt {stroke [] 0 setdash gsave 1 setlinecap M 0 0 V stroke grestore} def
/Dia {stroke [] 0 setdash 2 copy vpt add M
  hpt neg vpt neg V hpt vpt neg V
  hpt vpt V hpt neg vpt V closepath stroke
  Pnt} def
/Pls {stroke [] 0 setdash vpt sub M 0 vpt2 V
  currentpoint stroke M
  hpt neg vpt neg R hpt2 0 V stroke
 } def
/Box {stroke [] 0 setdash 2 copy exch hpt sub exch vpt add M
  0 vpt2 neg V hpt2 0 V 0 vpt2 V
  hpt2 neg 0 V closepath stroke
  Pnt} def
/Crs {stroke [] 0 setdash exch hpt sub exch vpt add M
  hpt2 vpt2 neg V currentpoint stroke M
  hpt2 neg 0 R hpt2 vpt2 V stroke} def
/TriU {stroke [] 0 setdash 2 copy vpt 1.12 mul add M
  hpt neg vpt -1.62 mul V
  hpt 2 mul 0 V
  hpt neg vpt 1.62 mul V closepath stroke
  Pnt} def
/Star {2 copy Pls Crs} def
/BoxF {stroke [] 0 setdash exch hpt sub exch vpt add M
  0 vpt2 neg V hpt2 0 V 0 vpt2 V
  hpt2 neg 0 V closepath fill} def
/TriUF {stroke [] 0 setdash vpt 1.12 mul add M
  hpt neg vpt -1.62 mul V
  hpt 2 mul 0 V
  hpt neg vpt 1.62 mul V closepath fill} def
/TriD {stroke [] 0 setdash 2 copy vpt 1.12 mul sub M
  hpt neg vpt 1.62 mul V
  hpt 2 mul 0 V
  hpt neg vpt -1.62 mul V closepath stroke
  Pnt} def
/TriDF {stroke [] 0 setdash vpt 1.12 mul sub M
  hpt neg vpt 1.62 mul V
  hpt 2 mul 0 V
  hpt neg vpt -1.62 mul V closepath fill} def
/DiaF {stroke [] 0 setdash vpt add M
  hpt neg vpt neg V hpt vpt neg V
  hpt vpt V hpt neg vpt V closepath fill} def
/Pent {stroke [] 0 setdash 2 copy gsave
  translate 0 hpt M 4 {72 rotate 0 hpt L} repeat
  closepath stroke grestore Pnt} def
/PentF {stroke [] 0 setdash gsave
  translate 0 hpt M 4 {72 rotate 0 hpt L} repeat
  closepath fill grestore} def
/Circle {stroke [] 0 setdash 2 copy
  hpt 0 360 arc stroke Pnt} def
/CircleF {stroke [] 0 setdash hpt 0 360 arc fill} def
/C0 {BL [] 0 setdash 2 copy moveto vpt 90 450 arc} bind def
/C1 {BL [] 0 setdash 2 copy moveto
	2 copy vpt 0 90 arc closepath fill
	vpt 0 360 arc closepath} bind def
/C2 {BL [] 0 setdash 2 copy moveto
	2 copy vpt 90 180 arc closepath fill
	vpt 0 360 arc closepath} bind def
/C3 {BL [] 0 setdash 2 copy moveto
	2 copy vpt 0 180 arc closepath fill
	vpt 0 360 arc closepath} bind def
/C4 {BL [] 0 setdash 2 copy moveto
	2 copy vpt 180 270 arc closepath fill
	vpt 0 360 arc closepath} bind def
/C5 {BL [] 0 setdash 2 copy moveto
	2 copy vpt 0 90 arc
	2 copy moveto
	2 copy vpt 180 270 arc closepath fill
	vpt 0 360 arc} bind def
/C6 {BL [] 0 setdash 2 copy moveto
	2 copy vpt 90 270 arc closepath fill
	vpt 0 360 arc closepath} bind def
/C7 {BL [] 0 setdash 2 copy moveto
	2 copy vpt 0 270 arc closepath fill
	vpt 0 360 arc closepath} bind def
/C8 {BL [] 0 setdash 2 copy moveto
	2 copy vpt 270 360 arc closepath fill
	vpt 0 360 arc closepath} bind def
/C9 {BL [] 0 setdash 2 copy moveto
	2 copy vpt 270 450 arc closepath fill
	vpt 0 360 arc closepath} bind def
/C10 {BL [] 0 setdash 2 copy 2 copy moveto vpt 270 360 arc closepath fill
	2 copy moveto
	2 copy vpt 90 180 arc closepath fill
	vpt 0 360 arc closepath} bind def
/C11 {BL [] 0 setdash 2 copy moveto
	2 copy vpt 0 180 arc closepath fill
	2 copy moveto
	2 copy vpt 270 360 arc closepath fill
	vpt 0 360 arc closepath} bind def
/C12 {BL [] 0 setdash 2 copy moveto
	2 copy vpt 180 360 arc closepath fill
	vpt 0 360 arc closepath} bind def
/C13 {BL [] 0 setdash 2 copy moveto
	2 copy vpt 0 90 arc closepath fill
	2 copy moveto
	2 copy vpt 180 360 arc closepath fill
	vpt 0 360 arc closepath} bind def
/C14 {BL [] 0 setdash 2 copy moveto
	2 copy vpt 90 360 arc closepath fill
	vpt 0 360 arc} bind def
/C15 {BL [] 0 setdash 2 copy vpt 0 360 arc closepath fill
	vpt 0 360 arc closepath} bind def
/Rec {newpath 4 2 roll moveto 1 index 0 rlineto 0 exch rlineto
	neg 0 rlineto closepath} bind def
/Square {dup Rec} bind def
/Bsquare {vpt sub exch vpt sub exch vpt2 Square} bind def
/S0 {BL [] 0 setdash 2 copy moveto 0 vpt rlineto BL Bsquare} bind def
/S1 {BL [] 0 setdash 2 copy vpt Square fill Bsquare} bind def
/S2 {BL [] 0 setdash 2 copy exch vpt sub exch vpt Square fill Bsquare} bind def
/S3 {BL [] 0 setdash 2 copy exch vpt sub exch vpt2 vpt Rec fill Bsquare} bind def
/S4 {BL [] 0 setdash 2 copy exch vpt sub exch vpt sub vpt Square fill Bsquare} bind def
/S5 {BL [] 0 setdash 2 copy 2 copy vpt Square fill
	exch vpt sub exch vpt sub vpt Square fill Bsquare} bind def
/S6 {BL [] 0 setdash 2 copy exch vpt sub exch vpt sub vpt vpt2 Rec fill Bsquare} bind def
/S7 {BL [] 0 setdash 2 copy exch vpt sub exch vpt sub vpt vpt2 Rec fill
	2 copy vpt Square fill Bsquare} bind def
/S8 {BL [] 0 setdash 2 copy vpt sub vpt Square fill Bsquare} bind def
/S9 {BL [] 0 setdash 2 copy vpt sub vpt vpt2 Rec fill Bsquare} bind def
/S10 {BL [] 0 setdash 2 copy vpt sub vpt Square fill 2 copy exch vpt sub exch vpt Square fill
	Bsquare} bind def
/S11 {BL [] 0 setdash 2 copy vpt sub vpt Square fill 2 copy exch vpt sub exch vpt2 vpt Rec fill
	Bsquare} bind def
/S12 {BL [] 0 setdash 2 copy exch vpt sub exch vpt sub vpt2 vpt Rec fill Bsquare} bind def
/S13 {BL [] 0 setdash 2 copy exch vpt sub exch vpt sub vpt2 vpt Rec fill
	2 copy vpt Square fill Bsquare} bind def
/S14 {BL [] 0 setdash 2 copy exch vpt sub exch vpt sub vpt2 vpt Rec fill
	2 copy exch vpt sub exch vpt Square fill Bsquare} bind def
/S15 {BL [] 0 setdash 2 copy Bsquare fill Bsquare} bind def
/D0 {gsave translate 45 rotate 0 0 S0 stroke grestore} bind def
/D1 {gsave translate 45 rotate 0 0 S1 stroke grestore} bind def
/D2 {gsave translate 45 rotate 0 0 S2 stroke grestore} bind def
/D3 {gsave translate 45 rotate 0 0 S3 stroke grestore} bind def
/D4 {gsave translate 45 rotate 0 0 S4 stroke grestore} bind def
/D5 {gsave translate 45 rotate 0 0 S5 stroke grestore} bind def
/D6 {gsave translate 45 rotate 0 0 S6 stroke grestore} bind def
/D7 {gsave translate 45 rotate 0 0 S7 stroke grestore} bind def
/D8 {gsave translate 45 rotate 0 0 S8 stroke grestore} bind def
/D9 {gsave translate 45 rotate 0 0 S9 stroke grestore} bind def
/D10 {gsave translate 45 rotate 0 0 S10 stroke grestore} bind def
/D11 {gsave translate 45 rotate 0 0 S11 stroke grestore} bind def
/D12 {gsave translate 45 rotate 0 0 S12 stroke grestore} bind def
/D13 {gsave translate 45 rotate 0 0 S13 stroke grestore} bind def
/D14 {gsave translate 45 rotate 0 0 S14 stroke grestore} bind def
/D15 {gsave translate 45 rotate 0 0 S15 stroke grestore} bind def
/DiaE {stroke [] 0 setdash vpt add M
  hpt neg vpt neg V hpt vpt neg V
  hpt vpt V hpt neg vpt V closepath stroke} def
/BoxE {stroke [] 0 setdash exch hpt sub exch vpt add M
  0 vpt2 neg V hpt2 0 V 0 vpt2 V
  hpt2 neg 0 V closepath stroke} def
/TriUE {stroke [] 0 setdash vpt 1.12 mul add M
  hpt neg vpt -1.62 mul V
  hpt 2 mul 0 V
  hpt neg vpt 1.62 mul V closepath stroke} def
/TriDE {stroke [] 0 setdash vpt 1.12 mul sub M
  hpt neg vpt 1.62 mul V
  hpt 2 mul 0 V
  hpt neg vpt -1.62 mul V closepath stroke} def
/PentE {stroke [] 0 setdash gsave
  translate 0 hpt M 4 {72 rotate 0 hpt L} repeat
  closepath stroke grestore} def
/CircE {stroke [] 0 setdash 
  hpt 0 360 arc stroke} def
/Opaque {gsave closepath 1 setgray fill grestore 0 setgray closepath} def
/DiaW {stroke [] 0 setdash vpt add M
  hpt neg vpt neg V hpt vpt neg V
  hpt vpt V hpt neg vpt V Opaque stroke} def
/BoxW {stroke [] 0 setdash exch hpt sub exch vpt add M
  0 vpt2 neg V hpt2 0 V 0 vpt2 V
  hpt2 neg 0 V Opaque stroke} def
/TriUW {stroke [] 0 setdash vpt 1.12 mul add M
  hpt neg vpt -1.62 mul V
  hpt 2 mul 0 V
  hpt neg vpt 1.62 mul V Opaque stroke} def
/TriDW {stroke [] 0 setdash vpt 1.12 mul sub M
  hpt neg vpt 1.62 mul V
  hpt 2 mul 0 V
  hpt neg vpt -1.62 mul V Opaque stroke} def
/PentW {stroke [] 0 setdash gsave
  translate 0 hpt M 4 {72 rotate 0 hpt L} repeat
  Opaque stroke grestore} def
/CircW {stroke [] 0 setdash 
  hpt 0 360 arc Opaque stroke} def
/BoxFill {gsave Rec 1 setgray fill grestore} def
/Density {
  /Fillden exch def
  currentrgbcolor
  /ColB exch def /ColG exch def /ColR exch def
  /ColR ColR Fillden mul Fillden sub 1 add def
  /ColG ColG Fillden mul Fillden sub 1 add def
  /ColB ColB Fillden mul Fillden sub 1 add def
  ColR ColG ColB setrgbcolor} def
/BoxColFill {gsave Rec PolyFill} def
/PolyFill {gsave Density fill grestore grestore} def
/h {rlineto rlineto rlineto closepath gsave fill grestore stroke} bind def
%
% PostScript Level 1 Pattern Fill routine for rectangles
% Usage: x y w h s a XX PatternFill
%	x,y = lower left corner of box to be filled
%	w,h = width and height of box
%	  a = angle in degrees between lines and x-axis
%	 XX = 0/1 for no/yes cross-hatch
%
/PatternFill {gsave /PFa [ 9 2 roll ] def
  PFa 0 get PFa 2 get 2 div add PFa 1 get PFa 3 get 2 div add translate
  PFa 2 get -2 div PFa 3 get -2 div PFa 2 get PFa 3 get Rec
  TransparentPatterns {} {gsave 1 setgray fill grestore} ifelse
  clip
  currentlinewidth 0.5 mul setlinewidth
  /PFs PFa 2 get dup mul PFa 3 get dup mul add sqrt def
  0 0 M PFa 5 get rotate PFs -2 div dup translate
  0 1 PFs PFa 4 get div 1 add floor cvi
	{PFa 4 get mul 0 M 0 PFs V} for
  0 PFa 6 get ne {
	0 1 PFs PFa 4 get div 1 add floor cvi
	{PFa 4 get mul 0 2 1 roll M PFs 0 V} for
 } if
  stroke grestore} def
%
/languagelevel where
 {pop languagelevel} {1} ifelse
dup 2 lt
	{/InterpretLevel1 true def
	 /InterpretLevel3 false def}
	{/InterpretLevel1 Level1 def
	 2 gt
	    {/InterpretLevel3 Level3 def}
	    {/InterpretLevel3 false def}
	 ifelse }
 ifelse
%
% PostScript level 2 pattern fill definitions
%
/Level2PatternFill {
/Tile8x8 {/PaintType 2 /PatternType 1 /TilingType 1 /BBox [0 0 8 8] /XStep 8 /YStep 8}
	bind def
/KeepColor {currentrgbcolor [/Pattern /DeviceRGB] setcolorspace} bind def
<< Tile8x8
 /PaintProc {0.5 setlinewidth pop 0 0 M 8 8 L 0 8 M 8 0 L stroke} 
>> matrix makepattern
/Pat1 exch def
<< Tile8x8
 /PaintProc {0.5 setlinewidth pop 0 0 M 8 8 L 0 8 M 8 0 L stroke
	0 4 M 4 8 L 8 4 L 4 0 L 0 4 L stroke}
>> matrix makepattern
/Pat2 exch def
<< Tile8x8
 /PaintProc {0.5 setlinewidth pop 0 0 M 0 8 L
	8 8 L 8 0 L 0 0 L fill}
>> matrix makepattern
/Pat3 exch def
<< Tile8x8
 /PaintProc {0.5 setlinewidth pop -4 8 M 8 -4 L
	0 12 M 12 0 L stroke}
>> matrix makepattern
/Pat4 exch def
<< Tile8x8
 /PaintProc {0.5 setlinewidth pop -4 0 M 8 12 L
	0 -4 M 12 8 L stroke}
>> matrix makepattern
/Pat5 exch def
<< Tile8x8
 /PaintProc {0.5 setlinewidth pop -2 8 M 4 -4 L
	0 12 M 8 -4 L 4 12 M 10 0 L stroke}
>> matrix makepattern
/Pat6 exch def
<< Tile8x8
 /PaintProc {0.5 setlinewidth pop -2 0 M 4 12 L
	0 -4 M 8 12 L 4 -4 M 10 8 L stroke}
>> matrix makepattern
/Pat7 exch def
<< Tile8x8
 /PaintProc {0.5 setlinewidth pop 8 -2 M -4 4 L
	12 0 M -4 8 L 12 4 M 0 10 L stroke}
>> matrix makepattern
/Pat8 exch def
<< Tile8x8
 /PaintProc {0.5 setlinewidth pop 0 -2 M 12 4 L
	-4 0 M 12 8 L -4 4 M 8 10 L stroke}
>> matrix makepattern
/Pat9 exch def
/Pattern1 {PatternBgnd KeepColor Pat1 setpattern} bind def
/Pattern2 {PatternBgnd KeepColor Pat2 setpattern} bind def
/Pattern3 {PatternBgnd KeepColor Pat3 setpattern} bind def
/Pattern4 {PatternBgnd KeepColor Landscape {Pat5} {Pat4} ifelse setpattern} bind def
/Pattern5 {PatternBgnd KeepColor Landscape {Pat4} {Pat5} ifelse setpattern} bind def
/Pattern6 {PatternBgnd KeepColor Landscape {Pat9} {Pat6} ifelse setpattern} bind def
/Pattern7 {PatternBgnd KeepColor Landscape {Pat8} {Pat7} ifelse setpattern} bind def
} def
%
%
%End of PostScript Level 2 code
%
/PatternBgnd {
  TransparentPatterns {} {gsave 1 setgray fill grestore} ifelse
} def
%
% Substitute for Level 2 pattern fill codes with
% grayscale if Level 2 support is not selected.
%
/Level1PatternFill {
/Pattern1 {0.250 Density} bind def
/Pattern2 {0.500 Density} bind def
/Pattern3 {0.750 Density} bind def
/Pattern4 {0.125 Density} bind def
/Pattern5 {0.375 Density} bind def
/Pattern6 {0.625 Density} bind def
/Pattern7 {0.875 Density} bind def
} def
%
% Now test for support of Level 2 code
%
Level1 {Level1PatternFill} {Level2PatternFill} ifelse
%
/Symbol-Oblique /Symbol findfont [1 0 .167 1 0 0] makefont
dup length dict begin {1 index /FID eq {pop pop} {def} ifelse} forall
currentdict end definefont pop
%
/Metrics {ExtendTextBox Gswidth} def
/Lwidth {currentpoint stroke M 0 vshift R Metrics} def
/Rwidth {currentpoint stroke M dup stringwidth pop neg vshift R Metrics} def
/Cwidth {currentpoint stroke M dup stringwidth pop -2 div vshift R Metrics} def
/GLwidth {currentpoint stroke M 0 vshift R {ExtendTextBox} forall} def
/GRwidth {currentpoint stroke M dup Gwidth vshift R {ExtendTextBox} forall} def
/GCwidth {currentpoint stroke M dup Gwidth 2 div vshift R {ExtendTextBox} forall} def
/GLwidth2 {0 Gwidth AddGlyphWidth} def
/GRwidth2 {Gwidth -1 mul 0 AddGlyphWidth} def
/GCwidth2 {Gwidth 2 div dup -1 mul AddGlyphWidth} def
/AddGlyphWidth { dup TBx2 gt {userdict /TBx2 3 -1 roll put} {pop} ifelse
                 dup TBx1 lt {userdict /TBx1 3 -1 roll put} {pop} ifelse } def
/MFshow {
   { dup 5 get 3 ge
     { 5 get 3 eq {gsave} {grestore} ifelse }
     {dup dup 0 get findfont exch 1 get scalefont setfont
     [ currentpoint ] exch dup 2 get 0 exch R dup 5 get 2 ne {dup dup 6
     get exch 4 get {textshow} {Metrics pop 0 R} ifelse }if dup 5 get 0 eq
     {dup 3 get {2 get neg 0 exch R pop} {pop aload pop M} ifelse} {dup 5
     get 1 eq {dup 2 get exch dup 3 get exch 6 get Gswidth pop -2 div
     dup 0 R} {dup 6 get Gswidth pop -2 div 0 R 6 get
     textshow 2 index {aload pop M neg 3 -1 roll neg R pop pop} {pop pop pop
     pop aload pop M} ifelse }ifelse }ifelse }
     ifelse }
   forall} def
/Gswidth {dup type /stringtype eq {stringwidth} {pop (n) stringwidth} ifelse} def
/MFwidth {0 exch { dup 5 get 3 ge { 5 get 3 eq { 0 } { pop } ifelse }
 {dup 3 get{dup dup 0 get findfont exch 1 get scalefont setfont
     6 get Gswidth pop add} {pop} ifelse} ifelse} forall} def
/MLshow { currentpoint stroke M
  0 exch R
  Blacktext {gsave 0 setgray MFshow grestore} {MFshow} ifelse } bind def
/MRshow { currentpoint stroke M
  exch dup MFwidth neg 3 -1 roll R
  Blacktext {gsave 0 setgray MFshow grestore} {MFshow} ifelse } bind def
/MCshow { currentpoint stroke M
  exch dup MFwidth -2 div 3 -1 roll R
  Blacktext {gsave 0 setgray MFshow grestore} {MFshow} ifelse } bind def
/XYsave    { [( ) 1 2 true false 3 ()] } bind def
/XYrestore { [( ) 1 2 true false 4 ()] } bind def
Level1 SuppressPDFMark or 
{} {
/SDict 10 dict def
systemdict /pdfmark known not {
  userdict /pdfmark systemdict /cleartomark get put
} if
SDict begin [
  /Title (starpu_vector_scal.eps)
  /Subject (gnuplot plot)
  /Creator (gnuplot 5.2 patchlevel 6)
%  /Producer (gnuplot)
%  /Keywords ()
  /CreationDate (Wed May  1 14:52:35 2019)
  /DOCINFO pdfmark
end
} ifelse
%
% Support for boxed text - Ethan A Merritt Sep 2016
%
/InitTextBox { userdict /TBy2 3 -1 roll put userdict /TBx2 3 -1 roll put
           userdict /TBy1 3 -1 roll put userdict /TBx1 3 -1 roll put
	   /Boxing true def } def
/ExtendTextBox { dup type /stringtype eq
    { Boxing { gsave dup false charpath pathbbox
      dup TBy2 gt {userdict /TBy2 3 -1 roll put} {pop} ifelse
      dup TBx2 gt {userdict /TBx2 3 -1 roll put} {pop} ifelse
      dup TBy1 lt {userdict /TBy1 3 -1 roll put} {pop} ifelse
      dup TBx1 lt {userdict /TBx1 3 -1 roll put} {pop} ifelse
      grestore } if }
    {} ifelse} def
/PopTextBox { newpath TBx1 TBxmargin sub TBy1 TBymargin sub M
               TBx1 TBxmargin sub TBy2 TBymargin add L
	       TBx2 TBxmargin add TBy2 TBymargin add L
	       TBx2 TBxmargin add TBy1 TBymargin sub L closepath } def
/DrawTextBox { PopTextBox stroke /Boxing false def} def
/FillTextBox { gsave PopTextBox fill grestore /Boxing false def} def
0 0 0 0 InitTextBox
/TBxmargin 20 def
/TBymargin 20 def
/Boxing false def
/textshow { ExtendTextBox Gshow } def
%
end
%%EndProlog
%%Page: 1 1
gnudict begin
gsave
doclip
50 50 translate
0.050 0.050 scale
0 setgray
newpath
(Helvetica) findfont 140 scalefont setfont
BackgroundColor 0 lt 3 1 roll 0 lt exch 0 lt or or not {BackgroundColor C 1.000 0 0 7200.00 5040.00 BoxColFill} if
1.000 UL
LTb
LCb setrgbcolor
938 448 M
63 0 V
5946 0 R
-63 0 V
stroke
854 448 M
[ [(Helvetica) 140.0 0.0 true true 0 ( 0.0001)]
] -46.7 MRshow
/Helvetica findfont 140 scalefont setfont
/vshift -46 def
1.000 UL
LTb
LCb setrgbcolor
938 605 M
31 0 V
5978 0 R
-31 0 V
938 697 M
31 0 V
5978 0 R
-31 0 V
938 762 M
31 0 V
5978 0 R
-31 0 V
938 812 M
31 0 V
5978 0 R
-31 0 V
938 854 M
31 0 V
5978 0 R
-31 0 V
938 889 M
31 0 V
5978 0 R
-31 0 V
938 919 M
31 0 V
5978 0 R
-31 0 V
938 946 M
31 0 V
5978 0 R
-31 0 V
938 969 M
63 0 V
5946 0 R
-63 0 V
stroke
854 969 M
[ [(Helvetica) 140.0 0.0 true true 0 ( 0.001)]
] -46.7 MRshow
/Helvetica findfont 140 scalefont setfont
1.000 UL
LTb
LCb setrgbcolor
938 1126 M
31 0 V
5978 0 R
-31 0 V
938 1218 M
31 0 V
5978 0 R
-31 0 V
938 1283 M
31 0 V
5978 0 R
-31 0 V
938 1334 M
31 0 V
5978 0 R
-31 0 V
938 1375 M
31 0 V
5978 0 R
-31 0 V
938 1410 M
31 0 V
5978 0 R
-31 0 V
938 1440 M
31 0 V
5978 0 R
-31 0 V
938 1467 M
31 0 V
5978 0 R
-31 0 V
938 1491 M
63 0 V
5946 0 R
-63 0 V
stroke
854 1491 M
[ [(Helvetica) 140.0 0.0 true true 0 ( 0.01)]
] -46.7 MRshow
/Helvetica findfont 140 scalefont setfont
1.000 UL
LTb
LCb setrgbcolor
938 1648 M
31 0 V
5978 0 R
-31 0 V
938 1740 M
31 0 V
5978 0 R
-31 0 V
938 1805 M
31 0 V
5978 0 R
-31 0 V
938 1855 M
31 0 V
5978 0 R
-31 0 V
938 1896 M
31 0 V
5978 0 R
-31 0 V
938 1931 M
31 0 V
5978 0 R
-31 0 V
938 1962 M
31 0 V
5978 0 R
-31 0 V
938 1988 M
31 0 V
5978 0 R
-31 0 V
938 2012 M
63 0 V
5946 0 R
-63 0 V
stroke
854 2012 M
[ [(Helvetica) 140.0 0.0 true true 0 ( 0.1)]
] -46.7 MRshow
/Helvetica findfont 140 scalefont setfont
1.000 UL
LTb
LCb setrgbcolor
938 2169 M
31 0 V
5978 0 R
-31 0 V
938 2261 M
31 0 V
5978 0 R
-31 0 V
938 2326 M
31 0 V
5978 0 R
-31 0 V
938 2377 M
31 0 V
5978 0 R
-31 0 V
938 2418 M
31 0 V
5978 0 R
-31 0 V
938 2453 M
31 0 V
5978 0 R
-31 0 V
938 2483 M
31 0 V
5978 0 R
-31 0 V
938 2510 M
31 0 V
5978 0 R
-31 0 V
938 2534 M
63 0 V
5946 0 R
-63 0 V
stroke
854 2534 M
[ [(Helvetica) 140.0 0.0 true true 0 ( 1)]
] -46.7 MRshow
/Helvetica findfont 140 scalefont setfont
1.000 UL
LTb
LCb setrgbcolor
938 2690 M
31 0 V
5978 0 R
-31 0 V
938 2782 M
31 0 V
5978 0 R
-31 0 V
938 2847 M
31 0 V
5978 0 R
-31 0 V
938 2898 M
31 0 V
5978 0 R
-31 0 V
938 2939 M
31 0 V
5978 0 R
-31 0 V
938 2974 M
31 0 V
5978 0 R
-31 0 V
938 3004 M
31 0 V
5978 0 R
-31 0 V
938 3031 M
31 0 V
5978 0 R
-31 0 V
938 3055 M
63 0 V
5946 0 R
-63 0 V
stroke
854 3055 M
[ [(Helvetica) 140.0 0.0 true true 0 ( 10)]
] -46.7 MRshow
/Helvetica findfont 140 scalefont setfont
1.000 UL
LTb
LCb setrgbcolor
938 3212 M
31 0 V
5978 0 R
-31 0 V
938 3304 M
31 0 V
5978 0 R
-31 0 V
938 3369 M
31 0 V
5978 0 R
-31 0 V
938 3419 M
31 0 V
5978 0 R
-31 0 V
938 3461 M
31 0 V
5978 0 R
-31 0 V
938 3495 M
31 0 V
5978 0 R
-31 0 V
938 3526 M
31 0 V
5978 0 R
-31 0 V
938 3552 M
31 0 V
5978 0 R
-31 0 V
938 3576 M
63 0 V
5946 0 R
-63 0 V
stroke
854 3576 M
[ [(Helvetica) 140.0 0.0 true true 0 ( 100)]
] -46.7 MRshow
/Helvetica findfont 140 scalefont setfont
1.000 UL
LTb
LCb setrgbcolor
938 3733 M
31 0 V
5978 0 R
-31 0 V
938 3825 M
31 0 V
5978 0 R
-31 0 V
938 3890 M
31 0 V
5978 0 R
-31 0 V
938 3941 M
31 0 V
5978 0 R
-31 0 V
938 3982 M
31 0 V
5978 0 R
-31 0 V
938 4017 M
31 0 V
5978 0 R
-31 0 V
938 4047 M
31 0 V
5978 0 R
-31 0 V
938 4074 M
31 0 V
5978 0 R
-31 0 V
938 4098 M
63 0 V
5946 0 R
-63 0 V
stroke
854 4098 M
[ [(Helvetica) 140.0 0.0 true true 0 ( 1000)]
] -46.7 MRshow
/Helvetica findfont 140 scalefont setfont
1.000 UL
LTb
LCb setrgbcolor
938 4255 M
31 0 V
5978 0 R
-31 0 V
938 4346 M
31 0 V
5978 0 R
-31 0 V
938 4412 M
31 0 V
5978 0 R
-31 0 V
938 4462 M
31 0 V
5978 0 R
-31 0 V
938 4503 M
31 0 V
5978 0 R
-31 0 V
938 4538 M
31 0 V
5978 0 R
-31 0 V
938 4568 M
31 0 V
5978 0 R
-31 0 V
938 4595 M
31 0 V
5978 0 R
-31 0 V
938 4619 M
63 0 V
5946 0 R
-63 0 V
stroke
854 4619 M
[ [(Helvetica) 140.0 0.0 true true 0 ( 10000)]
] -46.7 MRshow
/Helvetica findfont 140 scalefont setfont
1.000 UL
LTb
LCb setrgbcolor
938 448 M
0 63 V
0 4108 R
0 -63 V
stroke
938 308 M
[ [(Helvetica) 140.0 0.0 true true 0 ( 1)]
] -46.7 MCshow
/Helvetica findfont 140 scalefont setfont
1.000 UL
LTb
LCb setrgbcolor
1139 448 M
0 31 V
0 4140 R
0 -31 V
1257 448 M
0 31 V
0 4140 R
0 -31 V
1340 448 M
0 31 V
0 4140 R
0 -31 V
1405 448 M
0 31 V
0 4140 R
0 -31 V
1458 448 M
0 31 V
0 4140 R
0 -31 V
1502 448 M
0 31 V
0 4140 R
0 -31 V
1541 448 M
0 31 V
0 4140 R
0 -31 V
1575 448 M
0 31 V
0 4140 R
0 -31 V
1606 448 M
0 63 V
0 4108 R
0 -63 V
stroke
1606 308 M
[ [(Helvetica) 140.0 0.0 true true 0 ( 10)]
] -46.7 MCshow
/Helvetica findfont 140 scalefont setfont
1.000 UL
LTb
LCb setrgbcolor
1807 448 M
0 31 V
0 4140 R
0 -31 V
1924 448 M
0 31 V
0 4140 R
0 -31 V
2008 448 M
0 31 V
0 4140 R
0 -31 V
2072 448 M
0 31 V
0 4140 R
0 -31 V
2125 448 M
0 31 V
0 4140 R
0 -31 V
2170 448 M
0 31 V
0 4140 R
0 -31 V
2209 448 M
0 31 V
0 4140 R
0 -31 V
2243 448 M
0 31 V
0 4140 R
0 -31 V
2273 448 M
0 63 V
0 4108 R
0 -63 V
stroke
2273 308 M
[ [(Helvetica) 140.0 0.0 true true 0 ( 100)]
] -46.7 MCshow
/Helvetica findfont 140 scalefont setfont
1.000 UL
LTb
LCb setrgbcolor
2474 448 M
0 31 V
0 4140 R
0 -31 V
2592 448 M
0 31 V
0 4140 R
0 -31 V
2675 448 M
0 31 V
0 4140 R
0 -31 V
2740 448 M
0 31 V
0 4140 R
0 -31 V
2793 448 M
0 31 V
0 4140 R
0 -31 V
2838 448 M
0 31 V
0 4140 R
0 -31 V
2876 448 M
0 31 V
0 4140 R
0 -31 V
2910 448 M
0 31 V
0 4140 R
0 -31 V
2941 448 M
0 63 V
0 4108 R
0 -63 V
stroke
2941 308 M
[ [(Helvetica) 140.0 0.0 true true 0 ( 1000)]
] -46.7 MCshow
/Helvetica findfont 140 scalefont setfont
1.000 UL
LTb
LCb setrgbcolor
3142 448 M
0 31 V
0 4140 R
0 -31 V
3260 448 M
0 31 V
0 4140 R
0 -31 V
3343 448 M
0 31 V
0 4140 R
0 -31 V
3408 448 M
0 31 V
0 4140 R
0 -31 V
3461 448 M
0 31 V
0 4140 R
0 -31 V
3505 448 M
0 31 V
0 4140 R
0 -31 V
3544 448 M
0 31 V
0 4140 R
0 -31 V
3578 448 M
0 31 V
0 4140 R
0 -31 V
3609 448 M
0 63 V
0 4108 R
0 -63 V
stroke
3609 308 M
[ [(Helvetica) 140.0 0.0 true true 0 ( 10000)]
] -46.7 MCshow
/Helvetica findfont 140 scalefont setfont
1.000 UL
LTb
LCb setrgbcolor
3810 448 M
0 31 V
0 4140 R
0 -31 V
3927 448 M
0 31 V
0 4140 R
0 -31 V
4011 448 M
0 31 V
0 4140 R
0 -31 V
4075 448 M
0 31 V
0 4140 R
0 -31 V
4128 448 M
0 31 V
0 4140 R
0 -31 V
4173 448 M
0 31 V
0 4140 R
0 -31 V
4212 448 M
0 31 V
0 4140 R
0 -31 V
4246 448 M
0 31 V
0 4140 R
0 -31 V
4276 448 M
0 63 V
0 4108 R
0 -63 V
stroke
4276 308 M
[ [(Helvetica) 140.0 0.0 true true 0 ( 100000)]
] -46.7 MCshow
/Helvetica findfont 140 scalefont setfont
1.000 UL
LTb
LCb setrgbcolor
4477 448 M
0 31 V
0 4140 R
0 -31 V
4595 448 M
0 31 V
0 4140 R
0 -31 V
4678 448 M
0 31 V
0 4140 R
0 -31 V
4743 448 M
0 31 V
0 4140 R
0 -31 V
4796 448 M
0 31 V
0 4140 R
0 -31 V
4841 448 M
0 31 V
0 4140 R
0 -31 V
4879 448 M
0 31 V
0 4140 R
0 -31 V
4913 448 M
0 31 V
0 4140 R
0 -31 V
4944 448 M
0 63 V
0 4108 R
0 -63 V
stroke
4944 308 M
[ [(Helvetica) 140.0 0.0 true true 0 ( 1x10)]
[(Helvetica) 112.0 70.0 true true 0 (6)]
] -60.7 MCshow
/Helvetica findfont 140 scalefont setfont
1.000 UL
LTb
LCb setrgbcolor
5145 448 M
0 31 V
0 4140 R
0 -31 V
5263 448 M
0 31 V
0 4140 R
0 -31 V
5346 448 M
0 31 V
0 4140 R
0 -31 V
5411 448 M
0 31 V
0 4140 R
0 -31 V
5464 448 M
0 31 V
0 4140 R
0 -31 V
5508 448 M
0 31 V
0 4140 R
0 -31 V
5547 448 M
0 31 V
0 4140 R
0 -31 V
5581 448 M
0 31 V
0 4140 R
0 -31 V
5612 448 M
0 63 V
0 4108 R
0 -63 V
stroke
5612 308 M
[ [(Helvetica) 140.0 0.0 true true 0 ( 1x10)]
[(Helvetica) 112.0 70.0 true true 0 (7)]
] -60.7 MCshow
/Helvetica findfont 140 scalefont setfont
1.000 UL
LTb
LCb setrgbcolor
5813 448 M
0 31 V
0 4140 R
0 -31 V
5930 448 M
0 31 V
0 4140 R
0 -31 V
6014 448 M
0 31 V
0 4140 R
0 -31 V
6078 448 M
0 31 V
0 4140 R
0 -31 V
6131 448 M
0 31 V
0 4140 R
0 -31 V
6176 448 M
0 31 V
0 4140 R
0 -31 V
6215 448 M
0 31 V
0 4140 R
0 -31 V
6249 448 M
0 31 V
0 4140 R
0 -31 V
6279 448 M
0 63 V
0 4108 R
0 -63 V
stroke
6279 308 M
[ [(Helvetica) 140.0 0.0 true true 0 ( 1x10)]
[(Helvetica) 112.0 70.0 true true 0 (8)]
] -60.7 MCshow
/Helvetica findfont 140 scalefont setfont
1.000 UL
LTb
LCb setrgbcolor
6480 448 M
0 31 V
0 4140 R
0 -31 V
6598 448 M
0 31 V
0 4140 R
0 -31 V
6681 448 M
0 31 V
0 4140 R
0 -31 V
6746 448 M
0 31 V
0 4140 R
0 -31 V
6799 448 M
0 31 V
0 4140 R
0 -31 V
6844 448 M
0 31 V
0 4140 R
0 -31 V
6882 448 M
0 31 V
0 4140 R
0 -31 V
6916 448 M
0 31 V
0 4140 R
0 -31 V
6947 448 M
0 63 V
0 4108 R
0 -63 V
stroke
6947 308 M
[ [(Helvetica) 140.0 0.0 true true 0 ( 1x10)]
[(Helvetica) 112.0 70.0 true true 0 (9)]
] -60.7 MCshow
/Helvetica findfont 140 scalefont setfont
1.000 UL
LTb
LCb setrgbcolor
1.000 UL
LTB
LCb setrgbcolor
938 4619 N
938 448 L
6009 0 V
0 4171 V
-6009 0 V
Z stroke
1.000 UP
1.000 UL
LTb
LCb setrgbcolor
LCb setrgbcolor
126 2533 M
currentpoint gsave translate -270 rotate 0 0 moveto
[ [(Helvetica) 140.0 0.0 true true 0 (Time \(ms\))]
] -46.7 MCshow
grestore
/Helvetica findfont 140 scalefont setfont
LTb
LCb setrgbcolor
3942 98 M
[ [(Helvetica) 140.0 0.0 true true 0 (Total data size)]
] -46.7 MCshow
/Helvetica findfont 140 scalefont setfont
LTb
LCb setrgbcolor
3942 4829 M
[ [(Helvetica) 140.0 0.0 true true 0 (Model for codelet vector-scal)]
] -46.7 MCshow
/Helvetica findfont 140 scalefont setfont
% Begin plot #1
1.000 UL
LTb
0.58 0.00 0.83 C
LCb setrgbcolor
4298 4486 M
[ [(Helvetica) 140.0 0.0 true true 0 (Non-Linear Regression cuda0)]
[(Helvetica) 112.0 -42.0 true true 0 (i)]
[(Helvetica) 140.0 0.0 true true 0 (mpl0 \(Comb0\))]
] -32.7 MRshow
/Helvetica findfont 140 scalefont setfont
1.000 UL
LTb
0.58 0.00 0.83 C
4382 4486 M
399 0 V
938 1635 M
61 0 V
60 0 V
61 0 V
61 0 V
60 0 V
61 0 V
61 0 V
61 0 V
60 0 V
61 0 V
61 0 V
60 0 V
61 0 V
61 0 V
60 0 V
61 0 V
61 0 V
61 0 V
60 0 V
61 0 V
61 0 V
60 0 V
61 0 V
61 0 V
60 0 V
61 0 V
61 0 V
61 0 V
60 0 V
61 0 V
61 0 V
60 0 V
61 0 V
61 0 V
60 0 V
61 1 V
61 0 V
60 0 V
61 0 V
61 1 V
61 0 V
60 1 V
61 0 V
61 1 V
60 1 V
61 2 V
61 1 V
60 2 V
61 2 V
61 3 V
61 3 V
60 4 V
61 4 V
61 6 V
60 6 V
61 8 V
61 9 V
60 10 V
61 13 V
61 14 V
61 16 V
60 18 V
61 20 V
61 23 V
60 25 V
61 27 V
61 29 V
60 31 V
61 33 V
61 34 V
60 37 V
61 37 V
61 39 V
61 39 V
60 41 V
61 41 V
61 42 V
60 42 V
61 43 V
61 44 V
60 43 V
61 44 V
61 44 V
61 44 V
60 45 V
61 44 V
61 45 V
60 44 V
61 45 V
61 45 V
60 45 V
61 45 V
61 45 V
61 45 V
60 44 V
61 45 V
61 45 V
60 45 V
61 45 V
% End plot #1
% Begin plot #2
stroke
LTb
0.00 0.62 0.45 C
LCb setrgbcolor
4298 4346 M
[ [(Helvetica) 140.0 0.0 true true 0 (Non-Linear Regression cuda1)]
[(Helvetica) 112.0 -42.0 true true 0 (i)]
[(Helvetica) 140.0 0.0 true true 0 (mpl0 \(Comb1\))]
] -32.7 MRshow
/Helvetica findfont 140 scalefont setfont
1.000 UL
LTb
0.00 0.62 0.45 C
4382 4346 M
399 0 V
938 1622 M
61 0 V
60 0 V
61 0 V
61 0 V
60 0 V
61 0 V
61 0 V
61 0 V
60 0 V
61 0 V
61 0 V
60 0 V
61 0 V
61 0 V
60 0 V
61 0 V
61 0 V
61 0 V
60 0 V
61 0 V
61 0 V
60 0 V
61 0 V
61 0 V
60 0 V
61 0 V
61 0 V
61 0 V
60 0 V
61 0 V
61 0 V
60 0 V
61 0 V
61 0 V
60 0 V
61 0 V
61 0 V
60 1 V
61 0 V
61 0 V
61 0 V
60 1 V
61 0 V
61 1 V
60 0 V
61 1 V
61 1 V
60 2 V
61 1 V
61 2 V
61 3 V
60 3 V
61 4 V
61 4 V
60 6 V
61 7 V
61 8 V
60 10 V
61 11 V
61 14 V
61 16 V
60 19 V
61 21 V
61 24 V
60 26 V
61 30 V
61 31 V
60 35 V
61 36 V
61 39 V
60 40 V
61 42 V
61 44 V
61 44 V
60 45 V
61 47 V
61 47 V
60 47 V
61 48 V
61 48 V
60 49 V
61 49 V
61 49 V
61 49 V
60 49 V
61 49 V
61 50 V
60 49 V
61 50 V
61 50 V
60 49 V
61 50 V
61 50 V
61 50 V
60 49 V
61 50 V
61 50 V
60 50 V
61 50 V
% End plot #2
% Begin plot #3
stroke
LTb
0.34 0.71 0.91 C
LCb setrgbcolor
4298 4206 M
[ [(Helvetica) 140.0 0.0 true true 0 (Non-Linear Regression cuda2)]
[(Helvetica) 112.0 -42.0 true true 0 (i)]
[(Helvetica) 140.0 0.0 true true 0 (mpl0 \(Comb2\))]
] -32.7 MRshow
/Helvetica findfont 140 scalefont setfont
1.000 UL
LTb
0.34 0.71 0.91 C
4382 4206 M
399 0 V
938 1625 M
61 0 V
60 0 V
61 0 V
61 0 V
60 0 V
61 0 V
61 0 V
61 0 V
60 0 V
61 0 V
61 0 V
60 0 V
61 0 V
61 0 V
60 0 V
61 0 V
61 0 V
61 0 V
60 0 V
61 0 V
61 0 V
60 0 V
61 0 V
61 0 V
60 0 V
61 0 V
61 0 V
61 0 V
60 0 V
61 0 V
61 0 V
60 0 V
61 0 V
61 0 V
60 0 V
61 1 V
61 0 V
60 0 V
61 0 V
61 1 V
61 0 V
60 1 V
61 0 V
61 1 V
60 1 V
61 1 V
61 1 V
60 2 V
61 2 V
61 3 V
61 3 V
60 3 V
61 5 V
61 5 V
60 7 V
61 7 V
61 9 V
60 11 V
61 12 V
61 14 V
61 16 V
60 19 V
61 20 V
61 23 V
60 26 V
61 28 V
61 30 V
60 32 V
61 33 V
61 36 V
60 37 V
61 39 V
61 40 V
61 41 V
60 41 V
61 43 V
61 43 V
60 44 V
61 44 V
61 44 V
60 45 V
61 45 V
61 45 V
61 46 V
60 45 V
61 46 V
61 45 V
60 46 V
61 46 V
61 46 V
60 46 V
61 46 V
61 46 V
61 46 V
60 46 V
61 46 V
61 47 V
60 46 V
61 46 V
% End plot #3
% Begin plot #4
stroke
LTb
0.90 0.62 0.00 C
LCb setrgbcolor
4298 4066 M
[ [(Helvetica) 140.0 0.0 true true 0 (Non-Linear Regression cpu0)]
[(Helvetica) 112.0 -42.0 true true 0 (i)]
[(Helvetica) 140.0 0.0 true true 0 (mpl0 \(Comb3\))]
] -32.7 MRshow
/Helvetica findfont 140 scalefont setfont
1.000 UL
LTb
0.90 0.62 0.00 C
4382 4066 M
399 0 V
938 750 M
61 0 V
60 0 V
61 1 V
61 0 V
60 0 V
61 1 V
61 0 V
61 1 V
60 1 V
61 1 V
61 1 V
60 2 V
61 2 V
61 2 V
60 3 V
61 3 V
61 5 V
61 5 V
60 6 V
61 7 V
61 9 V
60 10 V
61 12 V
61 14 V
60 17 V
61 18 V
61 21 V
61 23 V
60 26 V
61 28 V
61 31 V
60 33 V
61 35 V
61 36 V
60 39 V
61 39 V
61 41 V
60 42 V
61 43 V
61 44 V
61 44 V
60 45 V
61 46 V
61 45 V
60 46 V
61 47 V
61 46 V
60 47 V
61 47 V
61 47 V
61 47 V
60 47 V
61 47 V
61 47 V
60 47 V
61 47 V
61 48 V
60 47 V
61 47 V
61 47 V
61 48 V
60 47 V
61 47 V
61 48 V
60 47 V
61 48 V
61 47 V
60 47 V
61 48 V
61 47 V
60 47 V
61 48 V
61 47 V
61 47 V
60 48 V
61 47 V
61 48 V
60 47 V
61 47 V
61 48 V
60 47 V
61 47 V
61 48 V
61 47 V
60 48 V
61 47 V
61 47 V
60 48 V
61 47 V
61 48 V
60 47 V
61 47 V
61 48 V
61 47 V
60 47 V
61 48 V
61 47 V
60 48 V
61 47 V
% End plot #4
% Begin plot #5
1.000 UP
stroke
LTb
0.94 0.89 0.26 C
LCb setrgbcolor
4298 3926 M
[ [(Helvetica) 140.0 0.0 true true 0 (Average cuda0-impl0 \(Comb0\))]
] -46.7 MRshow
/Helvetica findfont 140 scalefont setfont
1.000 UP
1.000 UL
LTb
0.94 0.89 0.26 C
4382 3926 M
399 0 V
-399 31 R
0 -62 V
399 62 R
0 -62 V
3350 1636 M
201 8 V
201 -4 V
201 9 V
201 6 V
201 17 V
201 34 V
201 46 V
201 124 V
201 113 V
201 132 V
201 144 V
3350 1616 M
0 39 V
-31 -39 R
62 0 V
-62 39 R
62 0 V
170 -24 R
0 26 V
-31 -26 R
62 0 V
-62 26 R
62 0 V
170 -27 R
0 20 V
-31 -20 R
62 0 V
-62 20 R
62 0 V
170 -11 R
0 19 V
-31 -19 R
62 0 V
-62 19 R
62 0 V
170 -11 R
0 16 V
-31 -16 R
62 0 V
-62 16 R
62 0 V
170 -1 R
0 19 V
-31 -19 R
62 0 V
-62 19 R
62 0 V
170 15 R
0 20 V
-31 -20 R
62 0 V
-62 20 R
62 0 V
170 32 R
0 7 V
-31 -7 R
62 0 V
-62 7 R
62 0 V
170 118 R
0 6 V
-31 -6 R
62 0 V
-62 6 R
62 0 V
170 109 R
0 2 V
-31 -2 R
62 0 V
-62 2 R
62 0 V
170 130 R
0 2 V
-31 -2 R
62 0 V
-62 2 R
62 0 V
170 142 R
0 1 V
-31 -1 R
62 0 V
-62 1 R
62 0 V
3350 1636 BoxF
3551 1644 BoxF
3752 1640 BoxF
3953 1649 BoxF
4154 1655 BoxF
4355 1672 BoxF
4556 1706 BoxF
4757 1752 BoxF
4958 1876 BoxF
5159 1989 BoxF
5360 2121 BoxF
5561 2265 BoxF
4581 3926 BoxF
% End plot #5
% Begin plot #6
1.000 UP
1.000 UL
LTb
0.00 0.45 0.70 C
LCb setrgbcolor
4298 3786 M
[ [(Helvetica) 140.0 0.0 true true 0 (Average cuda1-impl0 \(Comb1\))]
] -46.7 MRshow
/Helvetica findfont 140 scalefont setfont
1.000 UP
1.000 UL
LTb
0.00 0.45 0.70 C
4382 3786 M
399 0 V
-399 31 R
0 -62 V
399 62 R
0 -62 V
3350 1625 M
201 -2 V
201 2 V
201 5 V
201 11 V
201 18 V
201 31 V
201 54 V
201 128 V
201 116 V
201 132 V
201 144 V
3350 1607 M
0 34 V
-31 -34 R
62 0 V
-62 34 R
62 0 V
170 -28 R
0 21 V
-31 -21 R
62 0 V
-62 21 R
62 0 V
170 -16 R
0 13 V
-31 -13 R
62 0 V
-62 13 R
62 0 V
170 -6 R
0 10 V
-31 -10 R
62 0 V
-62 10 R
62 0 V
170 1 R
0 9 V
-31 -9 R
62 0 V
-62 9 R
62 0 V
170 10 R
0 8 V
-31 -8 R
62 0 V
-62 8 R
62 0 V
170 22 R
0 9 V
-31 -9 R
62 0 V
-62 9 R
62 0 V
170 46 R
0 8 V
-31 -8 R
62 0 V
-62 8 R
62 0 V
170 121 R
0 7 V
-31 -7 R
62 0 V
-62 7 R
62 0 V
170 108 R
0 9 V
-31 -9 R
62 0 V
-62 9 R
62 0 V
170 126 R
0 2 V
-31 -2 R
62 0 V
-62 2 R
62 0 V
170 142 R
0 1 V
-31 -1 R
62 0 V
-62 1 R
62 0 V
3350 1625 Circle
3551 1623 Circle
3752 1625 Circle
3953 1630 Circle
4154 1641 Circle
4355 1659 Circle
4556 1690 Circle
4757 1744 Circle
4958 1872 Circle
5159 1988 Circle
5360 2120 Circle
5561 2264 Circle
4581 3786 Circle
% End plot #6
% Begin plot #7
1.000 UP
1.000 UL
LTb
0.90 0.12 0.06 C
LCb setrgbcolor
4298 3646 M
[ [(Helvetica) 140.0 0.0 true true 0 (Average cuda2-impl0 \(Comb2\))]
] -46.7 MRshow
/Helvetica findfont 140 scalefont setfont
1.000 UP
1.000 UL
LTb
0.90 0.12 0.06 C
4382 3646 M
399 0 V
-399 31 R
0 -62 V
399 62 R
0 -62 V
3350 1628 M
201 3 V
201 -4 V
201 8 V
201 12 V
201 14 V
201 34 V
201 50 V
201 129 V
201 114 V
201 132 V
201 145 V
3350 1612 M
0 32 V
-31 -32 R
62 0 V
-62 32 R
62 0 V
170 -21 R
0 16 V
-31 -16 R
62 0 V
-62 16 R
62 0 V
170 -18 R
0 13 V
-31 -13 R
62 0 V
-62 13 R
62 0 V
170 -5 R
0 12 V
-31 -12 R
62 0 V
-62 12 R
62 0 V
170 2 R
0 8 V
-31 -8 R
62 0 V
-62 8 R
62 0 V
170 4 R
0 12 V
-31 -12 R
62 0 V
-62 12 R
62 0 V
170 22 R
0 13 V
-31 -13 R
62 0 V
-62 13 R
62 0 V
170 38 R
0 10 V
-31 -10 R
62 0 V
-62 10 R
62 0 V
170 122 R
0 4 V
-31 -4 R
62 0 V
-62 4 R
62 0 V
170 111 R
0 3 V
-31 -3 R
62 0 V
-62 3 R
62 0 V
170 130 R
0 1 V
-31 -1 R
62 0 V
-62 1 R
62 0 V
170 142 R
0 3 V
-31 -3 R
62 0 V
-62 3 R
62 0 V
3350 1628 CircleF
3551 1631 CircleF
3752 1627 CircleF
3953 1635 CircleF
4154 1647 CircleF
4355 1661 CircleF
4556 1695 CircleF
4757 1745 CircleF
4958 1874 CircleF
5159 1988 CircleF
5360 2120 CircleF
5561 2265 CircleF
4581 3646 CircleF
% End plot #7
% Begin plot #8
1.000 UP
1.000 UL
LTb
0.00 0.00 0.00 C
LCb setrgbcolor
4298 3506 M
[ [(Helvetica) 140.0 0.0 true true 0 (Average cpu0-impl0 \(Comb3\))]
] -46.7 MRshow
/Helvetica findfont 140 scalefont setfont
1.000 UP
1.000 UL
LTb
0.00 0.00 0.00 C
4382 3506 M
399 0 V
-399 31 R
0 -62 V
399 62 R
0 -62 V
3350 1340 M
201 149 V
201 153 V
201 154 V
201 156 V
201 156 V
201 156 V
201 157 V
201 157 V
201 157 V
201 157 V
201 157 V
3350 1337 M
0 7 V
-31 -7 R
62 0 V
-62 7 R
62 0 V
170 141 R
0 8 V
-31 -8 R
62 0 V
-62 8 R
62 0 V
170 139 R
0 19 V
-31 -19 R
62 0 V
-62 19 R
62 0 V
170 140 R
0 10 V
-31 -10 R
62 0 V
-62 10 R
62 0 V
170 147 R
0 7 V
-31 -7 R
62 0 V
-62 7 R
62 0 V
170 151 R
0 4 V
-31 -4 R
62 0 V
-62 4 R
62 0 V
170 153 R
0 3 V
-31 -3 R
62 0 V
-62 3 R
62 0 V
170 154 R
0 3 V
-31 -3 R
62 0 V
-62 3 R
62 0 V
170 154 R
0 2 V
-31 -2 R
62 0 V
-62 2 R
62 0 V
170 156 R
0 1 V
-31 -1 R
62 0 V
-62 1 R
62 0 V
170 156 R
-31 0 R
62 0 V
-62 0 R
62 0 V
170 157 R
-31 0 R
62 0 V
-62 0 R
62 0 V
3350 1340 TriU
3551 1489 TriU
3752 1642 TriU
3953 1796 TriU
4154 1952 TriU
4355 2108 TriU
4556 2264 TriU
4757 2421 TriU
4958 2578 TriU
5159 2735 TriU
5360 2892 TriU
5561 3049 TriU
4581 3506 TriU
% End plot #8
2.000 UL
LTb
LCb setrgbcolor
1.000 UL
LTB
LCb setrgbcolor
938 4619 N
938 448 L
6009 0 V
0 4171 V
-6009 0 V
Z stroke
1.000 UP
1.000 UL
LTb
LCb setrgbcolor
stroke
grestore
end
showpage
%%Trailer
%%DocumentFonts: Helvetica
